[
  {
    "id": "1",
    "vid": "https://player.vimeo.com/video/230975643?title=0&amp;byline=0&amp;portrait=0&amp;badge=0&amp;color=3db3e3",
    "phaseContent": "1.1 This section will provide you with the details of the content you will be learning throughout the entire edition. We will also be going through the foundations of real estate by providing you with the background information, which is crucial for you to understand about the real estate industry.",
    "phaseQuestions": [
      {
        "quest": "1.1 no 1 In this Edition, you will learn negotiation tips whether you are representing the buyer or the seller, as well as the power of ___________ during negotiations.",
        "options": [
          {
            "opt": "Confidence",
            "val": "radio1"
          },
          {
            "opt": "BATNA",
            "val": "radio2"
          },
          {
            "opt": "Intimidation",
            "val": "radio3"
          },
          {
            "opt": "Positivity",
            "val": "radio4"
          }
        ],
        "activeQuestion": true,
        "lastQuestion": false
      },
      {
        "quest": "1.1 no 2 In this Edition, you will learn negotiation tips whether you are representing the buyer or the seller, as well as the power of ___________ during negotiations.",
        "options": [
          {
            "opt": "Confidence",
            "val": "radio1"
          },
          {
            "opt": "BATNA",
            "val": "radio2"
          },
          {
            "opt": "Intimidation",
            "val": "radio3"
          },
          {
            "opt": "Positivity",
            "val": "radio4"
          }
        ],
        "activeQuestion": false,
        "lastQuestion": false
      },
      {
        "quest": "1.1 no 3 In this Edition, you will learn negotiation tips whether you are representing the buyer or the seller, as well as the power of ___________ during negotiations.",
        "options": [
          {
            "opt": "Confidence",
            "val": "radio1"
          },
          {
            "opt": "BATNA",
            "val": "radio2"
          },
          {
            "opt": "Intimidation",
            "val": "radio3"
          },
          {
            "opt": "Positivity",
            "val": "radio4"
          }
        ],
        "activeQuestion": false,
        "lastQuestion": false
      },
      {
        "quest": "1.1 no 4 In this Edition, you will learn negotiation tips whether you are representing the buyer or the seller, as well as the power of ___________ during negotiations.",
        "options": [
          {
            "opt": "Confidence",
            "val": "radio1"
          },
          {
            "opt": "BATNA",
            "val": "radio2"
          },
          {
            "opt": "Intimidation",
            "val": "radio3"
          },
          {
            "opt": "Positivity",
            "val": "radio4"
          }
        ],
        "activeQuestion": false,
        "lastQuestion": false
      },
      {
        "quest": "1.1 no 5 In this Edition, you will learn negotiation tips whether you are representing the buyer or the seller, as well as the power of ___________ during negotiations.",
        "options": [
          {
            "opt": "Confidence",
            "val": "radio1"
          },
          {
            "opt": "BATNA",
            "val": "radio2"
          },
          {
            "opt": "Intimidation",
            "val": "radio3"
          },
          {
            "opt": "Positivity",
            "val": "radio4"
          }
        ],
        "activeQuestion": false,
        "lastQuestion": true
      }
    ],
    "nextSection": "2"
  },
  {
    "id": "2",
    "vid": "https://player.vimeo.com/video/230975643?title=0&amp;byline=0&amp;portrait=0&amp;badge=0&amp;color=3db3e3",
    "phaseContent": "1.2 This section will provide you with the details of the content you will be learning throughout the entire edition. We will also be going through the foundations of real estate by providing you with the background information, which is crucial for you to understand about the real estate industry.",
    "phaseQuestions": [
      {
        "quest": "1.2 no 1 In this Edition, you will learn negotiation tips whether you are representing the buyer or the seller, as well as the power of ___________ during negotiations.",
        "options": [
          {
            "opt": "Confidence",
            "val": "radio1"
          },
          {
            "opt": "BATNA",
            "val": "radio2"
          },
          {
            "opt": "Intimidation",
            "val": "radio3"
          },
          {
            "opt": "Positivity",
            "val": "radio4"
          }
        ],
        "activeQuestion": true,
        "lastQuestion": false
      },
      {
        "quest": "1.2 no 2 In this Edition, you will learn negotiation tips whether you are representing the buyer or the seller, as well as the power of ___________ during negotiations.",
        "options": [
          {
            "opt": "Confidence",
            "val": "radio1"
          },
          {
            "opt": "BATNA",
            "val": "radio2"
          },
          {
            "opt": "Intimidation",
            "val": "radio3"
          },
          {
            "opt": "Positivity",
            "val": "radio4"
          }
        ],
        "activeQuestion": false,
        "lastQuestion": false
      },
      {
        "quest": "1.2 no 3 In this Edition, you will learn negotiation tips whether you are representing the buyer or the seller, as well as the power of ___________ during negotiations.",
        "options": [
          {
            "opt": "Confidence",
            "val": "radio1"
          },
          {
            "opt": "BATNA",
            "val": "radio2"
          },
          {
            "opt": "Intimidation",
            "val": "radio3"
          },
          {
            "opt": "Positivity",
            "val": "radio4"
          }
        ],
        "activeQuestion": false,
        "lastQuestion": false
      },
      {
        "quest": "1.2 no 4 In this Edition, you will learn negotiation tips whether you are representing the buyer or the seller, as well as the power of ___________ during negotiations.",
        "options": [
          {
            "opt": "Confidence",
            "val": "radio1"
          },
          {
            "opt": "BATNA",
            "val": "radio2"
          },
          {
            "opt": "Intimidation",
            "val": "radio3"
          },
          {
            "opt": "Positivity",
            "val": "radio4"
          }
        ],
        "activeQuestion": false,
        "lastQuestion": false
      },
      {
        "quest": "1.2 no 5 In this Edition, you will learn negotiation tips whether you are representing the buyer or the seller, as well as the power of ___________ during negotiations.",
        "options": [
          {
            "opt": "Confidence",
            "val": "radio1"
          },
          {
            "opt": "BATNA",
            "val": "radio2"
          },
          {
            "opt": "Intimidation",
            "val": "radio3"
          },
          {
            "opt": "Positivity",
            "val": "radio4"
          }
        ],
        "activeQuestion": false,
        "lastQuestion": true
      }
    ],
    "nextSection": "3"
  },
  {
    "id": "3",
    "vid": "https://player.vimeo.com/video/230975643?title=0&amp;byline=0&amp;portrait=0&amp;badge=0&amp;color=3db3e3",
    "phaseContent": "1.3 This section will provide you with the details of the content you will be learning throughout the entire edition. We will also be going through the foundations of real estate by providing you with the background information, which is crucial for you to understand about the real estate industry.",
    "phaseQuestions": [
      {
        "quest": "1.3 no 1 In this Edition, you will learn negotiation tips whether you are representing the buyer or the seller, as well as the power of ___________ during negotiations.",
        "options": [
          {
            "opt": "Confidence",
            "val": "radio1"
          },
          {
            "opt": "BATNA",
            "val": "radio2"
          },
          {
            "opt": "Intimidation",
            "val": "radio3"
          },
          {
            "opt": "Positivity",
            "val": "radio4"
          }
        ],
        "activeQuestion": true,
        "lastQuestion": false
      },
      {
        "quest": "1.3 no 2 In this Edition, you will learn negotiation tips whether you are representing the buyer or the seller, as well as the power of ___________ during negotiations.",
        "options": [
          {
            "opt": "Confidence",
            "val": "radio1"
          },
          {
            "opt": "BATNA",
            "val": "radio2"
          },
          {
            "opt": "Intimidation",
            "val": "radio3"
          },
          {
            "opt": "Positivity",
            "val": "radio4"
          }
        ],
        "activeQuestion": false,
        "lastQuestion": false
      },
      {
        "quest": "1.3 no 3 In this Edition, you will learn negotiation tips whether you are representing the buyer or the seller, as well as the power of ___________ during negotiations.",
        "options": [
          {
            "opt": "Confidence",
            "val": "radio1"
          },
          {
            "opt": "BATNA",
            "val": "radio2"
          },
          {
            "opt": "Intimidation",
            "val": "radio3"
          },
          {
            "opt": "Positivity",
            "val": "radio4"
          }
        ],
        "activeQuestion": false,
        "lastQuestion": false
      },
      {
        "quest": "1.3 no 4 In this Edition, you will learn negotiation tips whether you are representing the buyer or the seller, as well as the power of ___________ during negotiations.",
        "options": [
          {
            "opt": "Confidence",
            "val": "radio1"
          },
          {
            "opt": "BATNA",
            "val": "radio2"
          },
          {
            "opt": "Intimidation",
            "val": "radio3"
          },
          {
            "opt": "Positivity",
            "val": "radio4"
          }
        ],
        "activeQuestion": false,
        "lastQuestion": false
      },
      {
        "quest": "1.3 no 5 In this Edition, you will learn negotiation tips whether you are representing the buyer or the seller, as well as the power of ___________ during negotiations.",
        "options": [
          {
            "opt": "Confidence",
            "val": "radio1"
          },
          {
            "opt": "BATNA",
            "val": "radio2"
          },
          {
            "opt": "Intimidation",
            "val": "radio3"
          },
          {
            "opt": "Positivity",
            "val": "radio4"
          }
        ],
        "activeQuestion": false,
        "lastQuestion": true
      }
    ],
    "nextSection": "1"
  }
]